{
  "name": "Курс Android разработки",
  "version": "0.0.1",
  "description": "Документация к API тестовых сервисов",
  "title": "Документация API (Крус Android разработки)",
  "url": "85.143.216.90:8082"
}